<svg xmlns="http://www.w3.org/2000/svg" viewBox="0 0 32 32">
  <defs>
    <style>
      .cls-1, .cls-3 {
        fill: none;
      }

      .cls-1 {
        stroke: #fff;
        stroke-width: 6px;
      }

      .cls-2 {
        stroke: none;
      }
    </style>
  </defs>
  <g id="Ellipse_1" data-name="Ellipse 1" class="cls-1">
    <circle class="cls-2" cx="16" cy="16" r="16"/>
    <circle class="cls-3" cx="16" cy="16" r="13"/>
  </g>
</svg>
